The player's figure is ---> Paper     The AI's figure is ---> Lizard     The winner is ---> AI 
The player's figure is ---> Paper     The AI's figure is ---> Spock     The winner is ---> Player 
The player's figure is ---> Paper     The AI's figure is ---> Spock     The winner is ---> Player 
The player's figure is ---> Paper     The AI's figure is ---> Rock     The winner is ---> Player 
The player's figure is ---> Paper     The AI's figure is ---> Paper     Identical results ---> Draw 
The player's figure is ---> Rock     The AI's figure is ---> Scissors     The winner is ---> Player 
The player's figure is ---> Paper     The AI's figure is ---> Rock     The winner is ---> Player 
The player's figure is ---> Paper     The AI's figure is ---> Scissors     The winner is ---> AI 
The player's figure is ---> Paper     The AI's figure is ---> Rock     The winner is ---> Player 
The player's figure is ---> Paper     The AI's figure is ---> Rock     The winner is ---> Player 
The player's figure is ---> Paper     The AI's figure is ---> Lizard     The winner is ---> AI 
The player's figure is ---> Rock     The AI's figure is ---> Rock     Identical results ---> Draw 
The player's figure is ---> Paper     The AI's figure is ---> Paper     Identical results ---> Draw 
The player's figure is ---> Rock     The AI's figure is ---> Spock     The winner is ---> AI 
The player's figure is ---> Spock     The AI's figure is ---> Rock     The winner is ---> Player 
The player's figure is ---> Paper     The AI's figure is ---> Paper     Identical results ---> Draw 
The player's figure is ---> Paper     The AI's figure is ---> Spock     The winner is ---> Player 
The player's figure is ---> Spock     The AI's figure is ---> Lizard     The winner is ---> AI 
The player's figure is ---> Rock     The AI's figure is ---> Rock     Identical results ---> Draw 
The player's figure is ---> Paper     The AI's figure is ---> Paper     Identical results ---> Draw 
The player's figure is ---> Paper     The AI's figure is ---> Lizard     The winner is ---> AI 
